BancoDeRegistros/registro/latchD/simulation/qsim/latchD.msim.vcd
$comment
	File created using the following command:
		vcd file latchD.msim.vcd -direction
$end
$date
	Fri Sep 30 16:32:42 2016
$end
$version
	ModelSim Version 10.4d
$end
$timescale
	1ps
$end

$scope module latchD_vlg_vec_tst $end
$var reg 1 ! d $end
$var reg 1 " en $end
$var reg 1 # treg_q $end
$var reg 1 $ treg_qn $end
$var wire 1 % q $end
$var wire 1 & qn $end

$scope module i1 $end
$var wire 1 ' gnd $end
$var wire 1 ( vcc $end
$var wire 1 ) unknown $end
$var tri1 1 * devclrn $end
$var tri1 1 + devpor $end
$var tri1 1 , devoe $end
$var wire 1 - q~input_o $end
$var wire 1 . qn~input_o $end
$var wire 1 / ~QUARTUS_CREATED_GND~I_combout $end
$var wire 1 0 d~input_o $end
$var wire 1 1 en~input_o $end
$var wire 1 2 q~3_combout $end
$var wire 1 3 qn~2_combout $end
$upscope $end
$upscope $end
$enddefinitions $end
#0
$dumpvars
1!
0"
z#
z$
x%
x&
0'
1(
x)
1*
1+
1,
x-
x.
0/
10
01
x2
x3
$end
#10000
0!
00
#20000
1"
1!
11
10
12
1%
03
1-
0&
0.
#30000
0!
00
13
02
0%
1&
0-
1.
#40000
0"
1!
01
10
#50000
0!
00
#60000
1"
1!
11
10
12
1%
03
1-
0&
0.
#70000
0!
00
13
02
0%
1&
0-
1.
#80000
0"
1!
01
10
#90000
0!
00
#100000
1"
1!
11
10
12
1%
03
1-
0&
0.
#110000
0!
00
13
02
0%
1&
0-
1.
#120000
0"
1!
01
10
#130000
0!
00
#140000
1"
1!
11
10
12
1%
03
1-
0&
0.
#150000
0!
00
13
02
0%
1&
0-
1.
#160000
0"
1!
01
10
#170000
0!
00
#180000
1"
1!
11
10
12
1%
03
1-
0&
0.
#190000
0!
00
13
02
0%
1&
0-
1.
#200000
0"
1!
01
10
#210000
0!
00
#220000
1"
1!
11
10
12
1%
03
1-
0&
0.
#230000
0!
00
13
02
0%
1&
0-
1.
#240000
0"
1!
01
10
#250000
0!
00
#260000
1"
1!
11
10
12
1%
03
1-
0&
0.
#270000
0!
00
13
02
0%
1&
0-
1.
#280000
0"
1!
01
10
#290000
0!
00
#300000
1"
1!
11
10
12
1%
03
1-
0&
0.
#310000
0!
00
13
02
0%
1&
0-
1.
#320000
0"
1!
01
10
#330000
0!
00
#340000
1"
1!
11
10
12
1%
03
1-
0&
0.
#350000
0!
00
13
02
0%
1&
0-
1.
#360000
0"
1!
01
10
#370000
0!
00
#380000
1"
1!
11
10
12
1%
03
1-
0&
0.
#390000
0!
00
13
02
0%
1&
0-
1.
#400000
0"
1!
01
10
#410000
0!
00
#420000
1"
1!
11
10
12
1%
03
1-
0&
0.
#430000
0!
00
13
02
0%
1&
0-
1.
#440000
0"
1!
01
10
#450000
0!
00
#460000
1"
1!
11
10
12
1%
03
1-
0&
0.
#470000
0!
00
13
02
0%
1&
0-
1.
#480000
0"
1!
01
10
#490000
0!
00
#500000
1"
1!
11
10
12
1%
03
1-
0&
0.
#510000
0!
00
13
02
0%
1&
0-
1.
#520000
0"
1!
01
10
#530000
0!
00
#540000
1"
1!
11
10
12
1%
03
1-
0&
0.
#550000
0!
00
13
02
0%
1&
0-
1.
#560000
0"
1!
01
10
#570000
0!
00
#580000
1"
1!
11
10
12
1%
03
1-
0&
0.
#590000
0!
00
13
02
0%
1&
0-
1.
#600000
0"
1!
01
10
#610000
0!
00
#620000
1"
1!
11
10
12
1%
03
1-
0&
0.
#630000
0!
00
13
02
0%
1&
0-
1.
#640000
0"
1!
01
10
#650000
0!
00
#660000
1"
1!
11
10
12
1%
03
1-
0&
0.
#670000
0!
00
13
02
0%
1&
0-
1.
#680000
0"
1!
01
10
#690000
0!
00
#700000
1"
1!
11
10
12
1%
03
1-
0&
0.
#710000
0!
00
13
02
0%
1&
0-
1.
#720000
0"
1!
01
10
#730000
0!
00
#740000
1"
1!
11
10
12
1%
03
1-
0&
0.
#750000
0!
00
13
02
0%
1&
0-
1.
#760000
0"
1!
01
10
#770000
0!
00
#780000
1"
1!
11
10
12
1%
03
1-
0&
0.
#790000
0!
00
13
02
0%
1&
0-
1.
#800000
0"
1!
01
10
#810000
0!
00
#820000
1"
1!
11
10
12
1%
03
1-
0&
0.
#830000
0!
00
13
02
0%
1&
0-
1.
#840000
0"
1!
01
10
#850000
0!
00
#860000
1"
1!
11
10
12
1%
03
1-
0&
0.
#870000
0!
00
13
02
0%
1&
0-
1.
#880000
0"
1!
01
10
#890000
0!
00
#900000
1"
1!
11
10
12
1%
03
1-
0&
0.
#910000
0!
00
13
02
0%
1&
0-
1.
#920000
0"
1!
01
10
#930000
0!
00
#940000
1"
1!
11
10
12
1%
03
1-
0&
0.
#950000
0!
00
13
02
0%
1&
0-
1.
#960000
0"
1!
01
10
#970000
0!
00
#980000
1"
1!
11
10
12
1%
03
1-
0&
0.
#990000
0!
00
13
02
0%
1&
0-
1.
